{
    "componentChunkName": "component---packages-blog-gatsby-blog-core-src-templates-collection-tag-js",
    "path": "/tag/business/page/7/",
    "result": {"data":{"collectionInfo":{"id":"6f077534-6d28-59eb-986d-893bd0aafcdb","name":"#business","slug":"/tag/business/"},"posts":{"nodes":[{"id":"8a23c3c3-a4b2-552a-a617-97bcfb740aea","title":"Do You Prefer Blair's Or Serena's Outfits From Gossip Girl","slug":"/do-you-prefer-blairs-or-serenas-outfits-from-gossip-girl/","link":null,"excerpt":"Primo in altis pelle alumnae Lorem markdownum obvius in seque opus, est bicorni forte; laeva…","timeToRead":1,"featured":null,"thumbnailText":null,"date":"April 02, 2020","category":{"id":"5072ce49-e9ea-53da-8221-c34cd80046bb","name":"TV & Movies","slug":"/category/tv-and-movies/","color":"#bee3f8","icon":"/nuizi/static/f41361d1715191a688f7243a90b28bc7/tv-movies.svg"},"author":{"id":"38fc8aca-4774-5e17-9272-3180a33a110c","name":"John Doe","slug":"/author/john-doe/","title":"Web Developer","description":"Sed commodo, est quis maximus fermentum, massa ipsum euismod neque, in varius risus tellus quis lacus. Sed ac bibendum odio.","skills":["ASP.NET","Assembly","JavaScript"],"social":[{"name":"Instagram","url":"https://instagram.com/instagram"},{"name":"Twitter","url":"https://twitter.com/twitter"},{"name":"Website","url":"https://example.com"}],"thumbnail":{"__typename":"ImageSharp","ImageSharp_small":{"layout":"fixed","placeholder":{"fallback":"data:image/svg+xml,%3csvg%20xmlns='http://www.w3.org/2000/svg'%20width='48'%20height='48'%20viewBox='0%200%2048%2048'%20preserveAspectRatio='none'%3e%3cpath%20d='M22%203c-2%201-3%204-4%207l-2%205c-2%202-2%202-2-1l-2-3c-1%200-1%202%202%208%200%202%202%203%204%204%202%200%203%202%203%203h1c1-1%201-2-2-4l-4-5h1l2%201v-2c-2-1-2-1%200-1l2-2c0-6%204-9%2011-9%204%200%204%200%205%204v16c-1%201-1%201%200%200%202-3%203-11%201-19l-1-5h-6c-5%200-7%200-9%203m4%2023l3%202%203%201-2%203-2%203-4-4-5-4v21h18l-1-5c0-6%201-5%203%201l1%204v-5l-1-9c0-3-1-4-2-5-2-1-2-1-2%201%202%203%202%205%201%207-1%201-1-1-1-9%200-1-1-2-3-1l-4-1h-2'%20fill='%23d3d3d3'%20fill-rule='evenodd'/%3e%3c/svg%3e"},"images":{"fallback":{"src":"/nuizi/static/011b3215b6b7e782f02d67aebfa4c319/a7a66/john-doe.png","srcSet":"/nuizi/static/011b3215b6b7e782f02d67aebfa4c319/a7a66/john-doe.png 48w,\n/nuizi/static/011b3215b6b7e782f02d67aebfa4c319/416a0/john-doe.png 96w","sizes":"48px"},"sources":[{"srcSet":"/nuizi/static/011b3215b6b7e782f02d67aebfa4c319/a3542/john-doe.webp 48w,\n/nuizi/static/011b3215b6b7e782f02d67aebfa4c319/0f66d/john-doe.webp 96w","type":"image/webp","sizes":"48px"}]},"width":48,"height":48},"ImageSharp_regular":{"layout":"fixed","placeholder":{"fallback":"data:image/svg+xml,%3csvg%20xmlns='http://www.w3.org/2000/svg'%20width='48'%20height='48'%20viewBox='0%200%2048%2048'%20preserveAspectRatio='none'%3e%3cpath%20d='M22%203c-2%201-3%204-4%207l-2%205c-2%202-2%202-2-1l-2-3c-1%200-1%202%202%208%200%202%202%203%204%204%202%200%203%202%203%203h1c1-1%201-2-2-4l-4-5h1l2%201v-2c-2-1-2-1%200-1l2-2c0-6%204-9%2011-9%204%200%204%200%205%204v16c-1%201-1%201%200%200%202-3%203-11%201-19l-1-5h-6c-5%200-7%200-9%203m4%2023l3%202%203%201-2%203-2%203-4-4-5-4v21h18l-1-5c0-6%201-5%203%201l1%204v-5l-1-9c0-3-1-4-2-5-2-1-2-1-2%201%202%203%202%205%201%207-1%201-1-1-1-9%200-1-1-2-3-1l-4-1h-2'%20fill='%23d3d3d3'%20fill-rule='evenodd'/%3e%3c/svg%3e"},"images":{"fallback":{"src":"/nuizi/static/011b3215b6b7e782f02d67aebfa4c319/46e60/john-doe.png","srcSet":"/nuizi/static/011b3215b6b7e782f02d67aebfa4c319/46e60/john-doe.png 150w,\n/nuizi/static/011b3215b6b7e782f02d67aebfa4c319/d612b/john-doe.png 300w","sizes":"150px"},"sources":[{"srcSet":"/nuizi/static/011b3215b6b7e782f02d67aebfa4c319/ae23d/john-doe.webp 150w,\n/nuizi/static/011b3215b6b7e782f02d67aebfa4c319/bd37b/john-doe.webp 300w","type":"image/webp","sizes":"150px"}]},"width":150,"height":150}}},"thumbnail":{"__typename":"ImageSharp","ImageSharp_vertical":{"layout":"constrained","backgroundColor":"#787898","images":{"fallback":{"src":"/nuizi/static/a381cbe123484c239b97a005d5ce4a00/144fe/image.jpg","srcSet":"/nuizi/static/a381cbe123484c239b97a005d5ce4a00/9d7b9/image.jpg 190w,\n/nuizi/static/a381cbe123484c239b97a005d5ce4a00/144fe/image.jpg 380w","sizes":"(min-width: 380px) 380px, 100vw"},"sources":[{"srcSet":"/nuizi/static/a381cbe123484c239b97a005d5ce4a00/228d6/image.webp 190w,\n/nuizi/static/a381cbe123484c239b97a005d5ce4a00/6b99c/image.webp 380w","type":"image/webp","sizes":"(min-width: 380px) 380px, 100vw"}]},"width":380,"height":290},"ImageSharp_hero":{"layout":"constrained","backgroundColor":"#787898","images":{"fallback":{"src":"/nuizi/static/a381cbe123484c239b97a005d5ce4a00/5e493/image.jpg","srcSet":"/nuizi/static/a381cbe123484c239b97a005d5ce4a00/696c0/image.jpg 800w,\n/nuizi/static/a381cbe123484c239b97a005d5ce4a00/5e493/image.jpg 1600w","sizes":"(min-width: 1600px) 1600px, 100vw"},"sources":[{"srcSet":"/nuizi/static/a381cbe123484c239b97a005d5ce4a00/c9f06/image.webp 800w,\n/nuizi/static/a381cbe123484c239b97a005d5ce4a00/f47df/image.webp 1600w","type":"image/webp","sizes":"(min-width: 1600px) 1600px, 100vw"}]},"width":1600,"height":650}}},{"id":"80d37012-6514-5081-bc13-05e2f52ec038","title":"Here Are 22 Movies And Documentaries About Race","slug":"/here-are-22-movies-and-documentaries-about-race/","link":null,"excerpt":"Primo in altis pelle alumnae Lorem markdownum obvius in seque opus, est bicorni forte; laeva…","timeToRead":1,"featured":null,"thumbnailText":null,"date":"April 02, 2020","category":{"id":"5072ce49-e9ea-53da-8221-c34cd80046bb","name":"TV & Movies","slug":"/category/tv-and-movies/","color":"#bee3f8","icon":"/nuizi/static/f41361d1715191a688f7243a90b28bc7/tv-movies.svg"},"author":{"id":"38fc8aca-4774-5e17-9272-3180a33a110c","name":"John Doe","slug":"/author/john-doe/","title":"Web Developer","description":"Sed commodo, est quis maximus fermentum, massa ipsum euismod neque, in varius risus tellus quis lacus. Sed ac bibendum odio.","skills":["ASP.NET","Assembly","JavaScript"],"social":[{"name":"Instagram","url":"https://instagram.com/instagram"},{"name":"Twitter","url":"https://twitter.com/twitter"},{"name":"Website","url":"https://example.com"}],"thumbnail":{"__typename":"ImageSharp","ImageSharp_small":{"layout":"fixed","placeholder":{"fallback":"data:image/svg+xml,%3csvg%20xmlns='http://www.w3.org/2000/svg'%20width='48'%20height='48'%20viewBox='0%200%2048%2048'%20preserveAspectRatio='none'%3e%3cpath%20d='M22%203c-2%201-3%204-4%207l-2%205c-2%202-2%202-2-1l-2-3c-1%200-1%202%202%208%200%202%202%203%204%204%202%200%203%202%203%203h1c1-1%201-2-2-4l-4-5h1l2%201v-2c-2-1-2-1%200-1l2-2c0-6%204-9%2011-9%204%200%204%200%205%204v16c-1%201-1%201%200%200%202-3%203-11%201-19l-1-5h-6c-5%200-7%200-9%203m4%2023l3%202%203%201-2%203-2%203-4-4-5-4v21h18l-1-5c0-6%201-5%203%201l1%204v-5l-1-9c0-3-1-4-2-5-2-1-2-1-2%201%202%203%202%205%201%207-1%201-1-1-1-9%200-1-1-2-3-1l-4-1h-2'%20fill='%23d3d3d3'%20fill-rule='evenodd'/%3e%3c/svg%3e"},"images":{"fallback":{"src":"/nuizi/static/011b3215b6b7e782f02d67aebfa4c319/a7a66/john-doe.png","srcSet":"/nuizi/static/011b3215b6b7e782f02d67aebfa4c319/a7a66/john-doe.png 48w,\n/nuizi/static/011b3215b6b7e782f02d67aebfa4c319/416a0/john-doe.png 96w","sizes":"48px"},"sources":[{"srcSet":"/nuizi/static/011b3215b6b7e782f02d67aebfa4c319/a3542/john-doe.webp 48w,\n/nuizi/static/011b3215b6b7e782f02d67aebfa4c319/0f66d/john-doe.webp 96w","type":"image/webp","sizes":"48px"}]},"width":48,"height":48},"ImageSharp_regular":{"layout":"fixed","placeholder":{"fallback":"data:image/svg+xml,%3csvg%20xmlns='http://www.w3.org/2000/svg'%20width='48'%20height='48'%20viewBox='0%200%2048%2048'%20preserveAspectRatio='none'%3e%3cpath%20d='M22%203c-2%201-3%204-4%207l-2%205c-2%202-2%202-2-1l-2-3c-1%200-1%202%202%208%200%202%202%203%204%204%202%200%203%202%203%203h1c1-1%201-2-2-4l-4-5h1l2%201v-2c-2-1-2-1%200-1l2-2c0-6%204-9%2011-9%204%200%204%200%205%204v16c-1%201-1%201%200%200%202-3%203-11%201-19l-1-5h-6c-5%200-7%200-9%203m4%2023l3%202%203%201-2%203-2%203-4-4-5-4v21h18l-1-5c0-6%201-5%203%201l1%204v-5l-1-9c0-3-1-4-2-5-2-1-2-1-2%201%202%203%202%205%201%207-1%201-1-1-1-9%200-1-1-2-3-1l-4-1h-2'%20fill='%23d3d3d3'%20fill-rule='evenodd'/%3e%3c/svg%3e"},"images":{"fallback":{"src":"/nuizi/static/011b3215b6b7e782f02d67aebfa4c319/46e60/john-doe.png","srcSet":"/nuizi/static/011b3215b6b7e782f02d67aebfa4c319/46e60/john-doe.png 150w,\n/nuizi/static/011b3215b6b7e782f02d67aebfa4c319/d612b/john-doe.png 300w","sizes":"150px"},"sources":[{"srcSet":"/nuizi/static/011b3215b6b7e782f02d67aebfa4c319/ae23d/john-doe.webp 150w,\n/nuizi/static/011b3215b6b7e782f02d67aebfa4c319/bd37b/john-doe.webp 300w","type":"image/webp","sizes":"150px"}]},"width":150,"height":150}}},"thumbnail":{"__typename":"ImageSharp","ImageSharp_vertical":{"layout":"constrained","backgroundColor":"#787898","images":{"fallback":{"src":"/nuizi/static/a381cbe123484c239b97a005d5ce4a00/144fe/image.jpg","srcSet":"/nuizi/static/a381cbe123484c239b97a005d5ce4a00/9d7b9/image.jpg 190w,\n/nuizi/static/a381cbe123484c239b97a005d5ce4a00/144fe/image.jpg 380w","sizes":"(min-width: 380px) 380px, 100vw"},"sources":[{"srcSet":"/nuizi/static/a381cbe123484c239b97a005d5ce4a00/228d6/image.webp 190w,\n/nuizi/static/a381cbe123484c239b97a005d5ce4a00/6b99c/image.webp 380w","type":"image/webp","sizes":"(min-width: 380px) 380px, 100vw"}]},"width":380,"height":290},"ImageSharp_hero":{"layout":"constrained","backgroundColor":"#787898","images":{"fallback":{"src":"/nuizi/static/a381cbe123484c239b97a005d5ce4a00/5e493/image.jpg","srcSet":"/nuizi/static/a381cbe123484c239b97a005d5ce4a00/696c0/image.jpg 800w,\n/nuizi/static/a381cbe123484c239b97a005d5ce4a00/5e493/image.jpg 1600w","sizes":"(min-width: 1600px) 1600px, 100vw"},"sources":[{"srcSet":"/nuizi/static/a381cbe123484c239b97a005d5ce4a00/c9f06/image.webp 800w,\n/nuizi/static/a381cbe123484c239b97a005d5ce4a00/f47df/image.webp 1600w","type":"image/webp","sizes":"(min-width: 1600px) 1600px, 100vw"}]},"width":1600,"height":650}}}],"pageInfo":{"pageCount":7,"hasPreviousPage":true,"hasNextPage":false,"currentPage":7},"totalCount":38}},"pageContext":{"slug":"/tag/business/","limit":6,"skip":36,"collectionType":"tags","paginatePostsPage":false,"basePath":"/","services":{"algolia":false,"mailchimp":false,"disqus":false,"graphComment":false,"facebookComment":false},"siteUrl":null,"mobileMenu":{"title":"Topics","items":[{"name":"News","slug":"/category/news/"},{"name":"Recipes","slug":"/category/recipes/"},{"name":"Shopping","slug":"/category/shopping/"},{"name":"TV & Movies","slug":"/category/tv-and-movies/"},{"name":"Teknoloji","slug":"/category/teknoloji/"}]},"darkMode":true,"includeExcerpt":true,"includeTimeToRead":true,"includeTableOfContents":true,"imageQuality":75}},
    "staticQueryHashes": ["1992822086","2409295108"]}